<?xml version="1.0" encoding="UTF-8"?>
<svg width="134px" height="33px" viewBox="0 0 134 33" version="1.1" xmlns="http://www.w3.org/2000/svg" xmlns:xlink="http://www.w3.org/1999/xlink">
    <!-- Generator: Sketch 58 (84663) - https://sketch.com -->
    <title>logo</title>
    <desc>Created with Sketch.</desc>
    <g id="logo" stroke="none" stroke-width="1" fill="none" fill-rule="evenodd">
        <g transform="translate(4.000000, 5.000000)" fill-rule="nonzero">
            <path d="M1.012,2.171 L3.474,2.171 L3.474,20.684 L0.911,20.684 L0.911,22.596 L6.071,22.596 L6.071,19.531 C7.184,20.897 8.735,22.809 11.939,22.809 C15.884,22.809 19.189,19.076 19.189,14.614 C19.189,9.819 16.086,6.086 12.006,6.086 C8.836,6.086 6.745,8.544 6.071,9.698 L6.071,0.259 L1.012,0.259 L1.012,2.171 Z M6.07,12.976 C6.07,10.67 8.734,8.029 11.364,8.029 C14.365,8.029 16.355,10.609 16.355,14.372 C16.355,18.287 14.365,20.806 11.263,20.806 C8.498,20.806 6.07,18.409 6.07,15.707 L6.07,12.976 Z" id="Shape" fill="#000000"></path>
            <path d="M33.86,18.104 C32.949,20.078 31.668,20.927 29.577,20.927 C28.228,20.927 27.116,20.532 26.171,19.713 C24.923,18.62 24.316,17.284 24.08,14.887 L37.198,14.887 C37.198,9.181 33.725,6.025 29.206,6.025 C24.721,6.025 21.281,9.697 21.281,14.492 C21.281,19.47 24.72,22.93 29.644,22.93 C31.903,22.93 33.893,22.111 35.343,20.593 C36.017,19.895 36.422,19.227 36.793,18.104 L33.86,18.104 Z M24.25,13.097 C24.317,12.52 24.486,11.913 24.621,11.519 C25.43,9.364 27.251,8.029 29.443,8.029 C30.623,8.029 31.635,8.363 32.444,9.03 C33.489,9.941 33.995,11.064 34.197,13.097 L24.25,13.097 Z" id="Shape" fill="#000000"></path>
            <polygon id="Path" fill="#000000" points="37.572 8.181 39.595 8.181 45.058 22.597 48.127 22.597 53.691 8.181 55.714 8.181 55.714 6.238 48.801 6.238 48.801 8.181 51.027 8.181 46.643 20.169 42.226 8.181 44.417 8.181 44.417 6.238 37.572 6.238"></polygon>
            <path d="M56.931,8.181 L59.326,8.181 L59.326,17.984 C59.326,20.989 61.248,22.992 64.115,22.992 C67.757,22.992 69.511,20.776 70.59,19.411 L70.59,22.598 L75.715,22.598 L75.715,20.686 L73.254,20.686 L73.254,6.238 L68.162,6.238 L68.162,8.18 L70.658,8.18 L70.658,13.521 C70.658,16.829 70.253,18.104 68.736,19.5 C67.623,20.472 66.342,21.018 65.094,21.018 C63.172,21.018 61.925,19.652 61.925,17.558 L61.925,6.238 L56.934,6.238 L56.934,8.181 L56.931,8.181 Z" id="Path" fill="#000000"></path>
            <path d="M78.617,6.238 L75.515,6.238 L75.515,8.18 L78.617,8.18 L78.617,19.652 C78.617,22.202 79.494,22.961 82.36,22.961 C83.203,22.961 84.451,22.931 85.496,22.87 L85.496,21.049 L84.552,21.079 C81.753,21.109 81.214,20.928 81.214,18.863 L81.214,8.181 L85.598,8.181 L85.598,6.239 L81.214,6.239 L81.214,2.141 L78.617,2.141 L78.617,6.238 Z" id="Path" fill="#000000"></path>
            <path d="M104.382,20.685 L101.819,20.685 L101.819,11.702 C101.819,7.605 98.649,6.057 94.94,6.057 C92.984,6.057 91.298,6.542 90.084,7.453 C89.005,8.303 88.465,9.153 88.061,10.791 L90.792,10.791 C91.332,8.697 92.512,7.908 95.142,7.908 C97.637,7.908 99.222,9.061 99.222,10.913 L99.222,12.582 C98.514,12.643 97.772,12.704 97.536,12.734 C90.387,13.341 87.352,14.889 87.352,17.984 C87.352,20.806 89.814,22.901 93.186,22.901 C95.85,22.901 97.806,21.748 99.256,19.714 L99.256,22.597 L104.382,22.597 L104.382,20.685 Z M99.223,16.891 C99.223,18.378 97.132,21.11 93.929,21.11 C91.839,21.11 90.186,19.714 90.186,18.014 C90.186,15.951 92.04,15.04 97.571,14.433 L99.223,14.251 L99.223,16.891 L99.223,16.891 Z" id="Shape" fill="#000000"></path>
            <path d="M113.939,5.547 L115.808,5.547 L115.808,1.936 L118.306,1.936 L118.306,12.875 L116.605,12.875 L116.605,14.807 L122.337,14.807 L122.337,12.875 L120.657,12.875 L120.657,1.936 L123.156,1.936 L123.156,5.61 L125.024,5.61 L125.024,0.004 L113.938,0.004 L113.938,5.547 L113.939,5.547 Z M107.115,1.936 L108.564,1.936 L108.564,12.875 L107.073,12.875 L107.073,14.807 L112.385,14.807 L112.385,12.875 L110.936,12.875 L110.936,1.936 L112.427,1.936 L112.427,0.004 L107.115,0.004 L107.115,1.936 Z" id="Shape" fill="#9B141B"></path>
        </g>
    </g>
</svg>