<?xml version="1.0" encoding="UTF-8"?>
<svg id="svg18724" width="72.808" height="72.808" version="1.1" viewBox="0 0 19.264 19.264" xmlns="http://www.w3.org/2000/svg" xmlns:cc="http://creativecommons.org/ns#" xmlns:dc="http://purl.org/dc/elements/1.1/" xmlns:rdf="http://www.w3.org/1999/02/22-rdf-syntax-ns#">
 <metadata id="metadata18721">
  <rdf:RDF>
   <cc:Work rdf:about="">
    <dc:format>image/svg+xml</dc:format>
    <dc:type rdf:resource="http://purl.org/dc/dcmitype/StillImage"/>
    <dc:title/>
   </cc:Work>
  </rdf:RDF>
 </metadata>
 <g id="layer1" transform="translate(-106.74 -251.71)">
  <g id="g18776" transform="translate(.13229 -.13229)">
   <path id="path18296" d="m125.74 261.47c0 5.2462-4.2538 9.4989-9.4992 9.4989-5.2476 0-9.5-4.2527-9.5-9.4989s4.2524-9.5003 9.5-9.5003c5.2455 0 9.4992 4.2542 9.4992 9.5003" fill="#db1f26"/>
   <path id="path18300" d="m117.86 264.12c0 0.21978-0.17851 0.39829-0.39934 0.39829-0.21943 0-0.39829-0.17851-0.39829-0.39829v-2.2257c0-0.21979 0.17886-0.39864 0.39829-0.39864 0.22083 0 0.39934 0.17885 0.39934 0.39864z" fill="#fff"/>
   <path id="path18304" d="m119.13 262.81 0.89782-1.0792c0.14182-0.16862 0.11818-0.42016-0.0497-0.56127-0.16934-0.14146-0.42157-0.11782-0.56198 0.0508l-1.1074 1.3314c-0.127 0.15204-0.1217 0.369 4e-3 0.5147l3.5e-4 7e-4 1.0887 1.3123c0.14111 0.16757 0.39264 0.19085 0.56162 0.0512 0.16934-0.14146 0.19121-0.39299 0.0498-0.56233z" fill="#fff"/>
   <path id="path18308" d="m112.29 264.12c0 0.21978-0.17815 0.39829-0.39829 0.39829-0.22083 0-0.39863-0.17851-0.39863-0.39829v-2.2257c0-0.21979 0.1778-0.39864 0.39863-0.39864 0.22014 0 0.39829 0.17885 0.39829 0.39864z" fill="#fff"/>
   <path id="path18312" d="m114.72 263.74c-0.52317 0-0.94791-0.42298-0.94791-0.94686 0-0.52281 0.42474-0.9465 0.94791-0.9465s0.94827 0.42369 0.94827 0.9465c0 0.52388-0.4251 0.94686-0.94827 0.94686m0-2.6691c-0.95109 0-1.7223 0.76871-1.724 1.7198v2.4408c0 0.21978 0.17921 0.39864 0.39969 0.39864 0.22014 0 0.39899-0.17886 0.39899-0.39864v-0.98425c0.26706 0.17039 0.58456 0.26952 0.92534 0.26952 0.95074 0 1.7219-0.77082 1.7219-1.7233 0-0.95073-0.77117-1.7223-1.7219-1.7223" fill="#fff"/>
   <path id="path18316" d="m122.2 263.74c-0.52211 0-0.94721-0.42298-0.94721-0.94686 0-0.52281 0.4251-0.9465 0.94721-0.9465 0.52282 0 0.94791 0.42369 0.94791 0.9465 0 0.52388-0.42509 0.94686-0.94791 0.94686m0-2.6691c-0.95144 0-1.7233 0.77153-1.7233 1.7223 0 0.9525 0.77188 1.7233 1.7233 1.7233 0.95179 0 1.7237-0.77082 1.7237-1.7233 0-0.95073-0.77188-1.7223-1.7237-1.7223" fill="#fff"/>
   <path id="path18320" d="m111.31 265.12c0 0.28187-0.22895 0.51117-0.51188 0.51117-0.28222 0-0.51118-0.2293-0.51118-0.51117 0-0.28328 0.22896-0.51117 0.51118-0.51117 0.28293 0 0.51188 0.22789 0.51188 0.51117" fill="#110f0d"/>
  </g>
 </g>
</svg>
