<?xml version="1.0" encoding="UTF-8"?>
<svg id="svg7" width="175.75pt" height="45.539pt" version="1.1" viewBox="0 0 175.75 45.539" xmlns="http://www.w3.org/2000/svg">
 <g id="surface1" transform="translate(-8.5039 -73.852)">
  <path id="path4" d="m55.559 110.55-2.7383-2.7031v-30.988l-6.7031 0.02344v33.727l6.6445 6.7031h0.11719l0.05469 0.0781 0.14062-0.0781h13.133c1.0078 1.0898 2.4492 1.7891 4.0586 1.7891 3.0312 0 5.457-2.4297 5.457-5.4609s-2.4258-5.4805-5.457-5.4805c-1.8633 0-3.5352 0.95312-4.5273 2.3906zm-38.738-21.465c1.2617 0.92969 2.0781 2.4648 2.0781 4.1953 0 1.6875-0.81641 3.2031-2.0586 4.1562l0.03906 9.3477 3.5938 3.7656h9.7891l3.5195-3.8086v-19.953l-3.4375-3.6328-10.047 0.02344-3.4766 3.6094zm-6.6445 7.9609c-1.0312-0.91016-1.6719-2.2695-1.6719-3.7656 0-1.5352 0.64062-2.8945 1.6719-3.8086v-4.7031l7.9648-7.9453 14.219-0.01953 8.2227 8.3164v23.855l-7.9883 8.2188h-14.453l-7.9648-8.0039zm3.4961-5.4375c0.95312 0 1.6875 0.73828 1.6875 1.6875 0 0.93359-0.73438 1.6719-1.6875 1.6719-0.93359 0-1.6719-0.73828-1.6719-1.6719 0-0.94922 0.73828-1.6875 1.6719-1.6875zm134.15 3.457c0.96875 0 1.75 0.79688 1.75 1.7891 0 0.97266-0.78125 1.7852-1.75 1.7852-0.99219 0-1.7695-0.8125-1.7695-1.7852 0-0.99219 0.77734-1.7891 1.7695-1.7891zm30.91-17.133c0.98829 0 1.7891 0.77734 1.7891 1.7461 0 0.94922-0.80078 1.7695-1.7891 1.7695-0.97265 0-1.75-0.82031-1.75-1.7695 0-0.96875 0.77735-1.7461 1.75-1.7461zm-62.055 34.23c0.99219 0 1.7695 0.77735 1.7695 1.7656 0 1.0117-0.77734 1.7891-1.7695 1.7891-0.96875 0-1.75-0.77734-1.75-1.7891 0-0.98828 0.78125-1.7656 1.75-1.7656zm-33.668 0c0.98828 0 1.7695 0.77735 1.7695 1.7656 0 1.0117-0.78125 1.7891-1.7695 1.7891-0.97266 0-1.7891-0.77734-1.7891-1.7891 0-0.98828 0.81641-1.7656 1.7891-1.7656zm-12.766-0.26953c1.0117 0 1.7891 0.79297 1.7891 1.7852 0 0.96875-0.77734 1.75-1.7891 1.75-0.98828 0-1.7656-0.78125-1.7656-1.75 0-0.99219 0.77734-1.7852 1.7656-1.7852zm-0.27344-34.332c0.99219 0 1.7695 0.79688 1.7695 1.7891 0 0.97266-0.77734 1.7852-1.7695 1.7852-0.96875 0-1.7852-0.8125-1.7852-1.7852 0-0.99219 0.81641-1.7891 1.7852-1.7891zm29.574 19.527c0.98828 0 1.7656 0.79297 1.7656 1.7852 0 0.97266-0.77734 1.7852-1.7656 1.7852-0.97266 0-1.7891-0.8125-1.7891-1.7852 0-0.99219 0.81641-1.7852 1.7891-1.7852zm79.34 15.367c0.91406 0 1.6914 0.77735 1.6914 1.707 0 0.91407-0.77734 1.6719-1.6914 1.6719-0.9336 0-1.668-0.75781-1.668-1.6719 0-0.92968 0.73437-1.707 1.668-1.707zm5.1289 1.4922c0 2.7031-2.1914 4.9961-4.8164 5.2656-3.3203 0.25391-6.2344-2.7773-5.6524-6.0625l-10.008-9.0312-13.148 13.191h-16.828l-6.7422-6.7617v-26.285l7.0352-7.4609h16.707l13.215 13.035 9.5352-9.5977c0-0.21094-0.0547-0.38672-0.0547-0.58203 0-3.0312 2.4453-5.4766 5.4766-5.4766 3.0664 0 5.5195 2.4453 5.5195 5.4766s-2.4531 5.4609-5.5195 5.4609c-0.2539 0-0.48828 0-0.73828-0.04297l-10.281 10.242h-8.0976c-3.8672-3.8672-7.9062-7.75-11.852-11.676h-11.52l-2.6992 2.6992v7.4023h9.7695c0.96875-1.457 2.6055-2.3516 4.5078-2.3516 3.0117 0 5.4375 2.4297 5.4375 5.4609s-2.4258 5.457-5.4375 5.457c-2.0195 0-3.75-1.1094-4.7031-2.6992h-9.5742v8.3125l2.7383 2.625h11.539l11.852-11.852 7.9648 0.01563 10.547 10.145c2.957-0.50391 5.8281 2.2344 5.8281 5.0898zm-63.953-37.125c0 10.918 0.0586 21.836 0.0586 32.777 1.2422 0.98828 2.0781 2.543 2.0781 4.293 0 3.0664-2.4492 5.4961-5.4805 5.4961-3.0703 0-5.4805-2.4297-5.4805-5.4961 0-1.75 0.83985-3.3047 2.1406-4.3164v-25.934h-5.5977l-4.875 4.2148v6.6055c1.2617 0.97266 2.0391 2.5273 2.0391 4.3125 0 3.0312-2.4297 5.4609-5.4609 5.4609-3.0312 0-5.4375-2.4297-5.4375-5.4609 0-1.8672 0.91016-3.5352 2.3477-4.5273v-6.3906l-4.8945-4.2148h-5.0117v25.992c1.2422 1.0312 2.0195 2.5664 2.0195 4.2578 0 3.0664-2.4688 5.4961-5.4961 5.4961-3.0508 0-5.4414-2.4297-5.4414-5.4961 0-1.7891 0.83594-3.3633 2.1953-4.3555l-0.05469-32.68h13.5l6.5078 5.6562 6.9375-5.6562zm-47.07 27.527h-5.8359v-20.398c-1.5898-0.94922-2.6602-2.6797-2.6602-4.6406 0-3.0312 2.4453-5.4609 5.4766-5.4609 3.0352 0 5.4609 2.4297 5.4609 5.4609 0 1.8828-1.0039 3.5547-2.4414 4.5234v20.516" fill="#d91e26" fill-rule="evenodd"/>
 </g>
</svg>
